{"name":"List User Information","id":"list-user-information;list-user-information","testSteps":[{"number":1,"description":"Given several users have been registered on the platform","duration":5,"startTime":"2022-01-07T06:16:15.887-05:00[America/Bogota]","result":"SUCCESS","precondition":false,"level":0},{"number":2,"description":"When the information request is sent","duration":695,"startTime":"2022-01-07T06:16:15.893-05:00[America/Bogota]","result":"SUCCESS","precondition":false,"level":0,"children":[{"number":3,"description":"Miguel do get","duration":686,"startTime":"2022-01-07T06:16:15.899-05:00[America/Bogota]","result":"SUCCESS","precondition":false,"level":1,"children":[{"number":4,"description":"Miguel executes a GET on the resource /api/users?page\u003d2","duration":681,"startTime":"2022-01-07T06:16:15.904-05:00[America/Bogota]","result":"SUCCESS","precondition":false,"level":2,"children":[{"number":5,"description":"GET https://reqres.in/api/users?page\u003d2\r","duration":0,"startTime":"2022-01-07T06:16:16.580-05:00[America/Bogota]","result":"SUCCESS","restQuery":{"method":"GET","path":"https://reqres.in/api/users?page\u003d2\r","content":"\r","contentType":"application/json","requestHeaders":"Accept\u003d*/*\r\n\t\t\t\tContent-Type\u003dapplication/json; charset\u003dUTF-8\r","requestCookies":"\r","responseHeaders":"Date: Fri, 07 Jan 2022 11:16:15 GMT\r\nContent-Type: application/json; charset\u003dutf-8\r\nTransfer-Encoding: chunked\r\nConnection: keep-alive\r\nx-powered-by: Express\r\naccess-control-allow-origin: *\r\netag: W/\"406-ut0vzoCuidvyMf8arZpMpJ6ZRDw\"\r\nvia: 1.1 vegur\r\nCache-Control: max-age\u003d14400\r\nCF-Cache-Status: REVALIDATED\r\nExpect-CT: max-age\u003d604800, report-uri\u003d\"https://report-uri.cloudflare.com/cdn-cgi/beacon/expect-ct\"\r\nReport-To: {\"endpoints\":[{\"url\":\"https:\\/\\/a.nel.cloudflare.com\\/report\\/v3?s\u003dtNizxY%2FtyKM9zg%2FEn76bPfnfz%2BAynDDNSehlgrkCJu8mhPJaYfE5azEGjJfqRdtJK4wb1z%2F4CVvyF0zP%2BNbujuFuWJHZCF3KlsHkffh%2BjAyHHjm0rkjJMY78D9E%3D\"}],\"group\":\"cf-nel\",\"max_age\":604800}\r\nNEL: {\"success_fraction\":0,\"report_to\":\"cf-nel\",\"max_age\":604800}\r\nVary: Accept-Encoding\r\nServer: cloudflare\r\nCF-RAY: 6c9cc5dace760a32-MIA\r\nContent-Encoding: gzip\r\nalt-svc: h3\u003d\":443\"; ma\u003d86400, h3-29\u003d\":443\"; ma\u003d86400, h3-28\u003d\":443\"; ma\u003d86400, h3-27\u003d\":443\"; ma\u003d86400\r","responseCookies":"\r","responseBody":"{\n    \"page\": 2,\n    \"per_page\": 6,\n    \"total\": 12,\n    \"total_pages\": 2,\n    \"data\": [\n        {\n            \"id\": 7,\n            \"email\": \"michael.lawson@reqres.in\",\n            \"first_name\": \"Michael\",\n            \"last_name\": \"Lawson\",\n            \"avatar\": \"https://reqres.in/img/faces/7-image.jpg\"\n        },\n        {\n            \"id\": 8,\n            \"email\": \"lindsay.ferguson@reqres.in\",\n            \"first_name\": \"Lindsay\",\n            \"last_name\": \"Ferguson\",\n            \"avatar\": \"https://reqres.in/img/faces/8-image.jpg\"\n        },\n        {\n            \"id\": 9,\n            \"email\": \"tobias.funke@reqres.in\",\n            \"first_name\": \"Tobias\",\n            \"last_name\": \"Funke\",\n            \"avatar\": \"https://reqres.in/img/faces/9-image.jpg\"\n        },\n        {\n            \"id\": 10,\n            \"email\": \"byron.fields@reqres.in\",\n            \"first_name\": \"Byron\",\n            \"last_name\": \"Fields\",\n            \"avatar\": \"https://reqres.in/img/faces/10-image.jpg\"\n        },\n        {\n            \"id\": 11,\n            \"email\": \"george.edwards@reqres.in\",\n            \"first_name\": \"George\",\n            \"last_name\": \"Edwards\",\n            \"avatar\": \"https://reqres.in/img/faces/11-image.jpg\"\n        },\n        {\n            \"id\": 12,\n            \"email\": \"rachel.howell@reqres.in\",\n            \"first_name\": \"Rachel\",\n            \"last_name\": \"Howell\",\n            \"avatar\": \"https://reqres.in/img/faces/12-image.jpg\"\n        }\n    ],\n    \"support\": {\n        \"url\": \"https://reqres.in/#support-heading\",\n        \"text\": \"To keep ReqRes free, contributions towards server costs are appreciated!\"\n    }\n}","statusCode":200},"precondition":false,"level":3}]}]}]},{"number":6,"description":"Then the administrator should be able to get the registered information","duration":10,"startTime":"2022-01-07T06:16:16.590-05:00[America/Bogota]","result":"SUCCESS","precondition":false,"level":0,"children":[{"number":7,"description":"Then El codigo de respuesta should be (200)","duration":2,"startTime":"2022-01-07T06:16:16.596-05:00[America/Bogota]","result":"SUCCESS","precondition":false,"level":1}]}],"userStory":{"id":"list-user-information","storyName":"List User Information","path":"file:///D:/All%20Sofka%20Trainning%20Leage/SofkaU%20Talleres/Talleres%20Habilidades%20Tecnicas/RetoSerenityBDDServiciosRest/src/test/resources/features/service/rest/get/listusersget.feature","narrative":"  As an administrator I want to obtain the information of the list of users of the system that have been registered","type":"feature"},"featureTag":{"name":"Get/List User Information","type":"feature","displayName":"Get/List User Information"},"title":"List User Information","tags":[{"name":"Rest/Get","type":"feature","displayName":"Get"},{"name":"Get/List User Information","type":"feature","displayName":"List User Information"},{"name":"Service/Rest","type":"theme","displayName":"Rest"},{"name":"Service","type":"theme","displayName":"Service"}],"startTime":"2022-01-07T06:16:15.877-05:00[America/Bogota]","duration":725,"projectKey":"","isManualTestingUpToDate":false,"manual":false,"testSource":"Cucumber","actors":[{"name":"Miguel","can":["call an API at https://reqres.in"]}],"result":"SUCCESS"}